Tidy Data
…
Each observation (row) is a SNP from a GWAS study and we information on its location, the disease/trait associated, etc. Let’s filter just SNPs for colorectal cancer

filter(gwas, `DISEASE/TRAIT` == 'Colorectal cancer')

# A tibble: 561 × 38
   DATE ADDED TO CATALO…¹ PUBMEDID `FIRST AUTHOR` DATE       JOURNAL LINK  STUDY
   <date>                    <dbl> <chr>          <date>     <chr>   <chr> <chr>
 1 2016-12-21             27145994 Wang M         2016-05-05 Nat Co… www.… Comm…
 2 2016-12-21             27145994 Wang M         2016-05-05 Nat Co… www.… Comm…
 3 2016-12-21             27145994 Wang M         2016-05-05 Nat Co… www.… Comm…
 4 2016-12-21             27145994 Wang M         2016-05-05 Nat Co… www.… Comm…
 5 2018-05-18             29471430 Tanikawa C     2018-02-17 Carcin… www.… GWAS…
 6 2018-05-18             29471430 Tanikawa C     2018-02-17 Carcin… www.… GWAS…
 7 2018-05-18             29471430 Tanikawa C     2018-02-17 Carcin… www.… GWAS…
 8 2018-05-18             29471430 Tanikawa C     2018-02-17 Carcin… www.… GWAS…
 9 2018-05-18             29471430 Tanikawa C     2018-02-17 Carcin… www.… GWAS…
10 2018-05-18             29471430 Tanikawa C     2018-02-17 Carcin… www.… GWAS…
# ℹ 551 more rows
# ℹ abbreviated name: ¹​`DATE ADDED TO CATALOG`
# ℹ 31 more variables: `DISEASE/TRAIT` <chr>, `INITIAL SAMPLE SIZE` <chr>,
#   `REPLICATION SAMPLE SIZE` <chr>, REGION <chr>, CHR_ID <chr>, CHR_POS <dbl>,
#   `REPORTED GENE(S)` <chr>, MAPPED_GENE <chr>, UPSTREAM_GENE_ID <chr>,
#   DOWNSTREAM_GENE_ID <chr>, SNP_GENE_IDS <chr>, UPSTREAM_GENE_DISTANCE <dbl>,
#   DOWNSTREAM_GENE_DISTANCE <dbl>, `STRONGEST SNP-RISK ALLELE` <chr>, …

We could apply another filter by just adding an argument, such as having a -log(p-value) (higher values of this mean more significant!) of greater than 10

filter(gwas, `DISEASE/TRAIT` == 'Colorectal cancer', PVALUE_MLOG > 10)

# A tibble: 142 × 38
   DATE ADDED TO CATALO…¹ PUBMEDID `FIRST AUTHOR` DATE       JOURNAL LINK  STUDY
   <date>                    <dbl> <chr>          <date>     <chr>   <chr> <chr>
 1 2016-12-21             27145994 Wang M         2016-05-05 Nat Co… www.… Comm…
 2 2018-05-18             29471430 Tanikawa C     2018-02-17 Carcin… www.… GWAS…
 3 2018-05-18             29471430 Tanikawa C     2018-02-17 Carcin… www.… GWAS…
 4 2018-05-18             29471430 Tanikawa C     2018-02-17 Carcin… www.… GWAS…
 5 2018-05-18             29471430 Tanikawa C     2018-02-17 Carcin… www.… GWAS…
 6 2018-05-18             29471430 Tanikawa C     2018-02-17 Carcin… www.… GWAS…
 7 2018-05-18             29471430 Tanikawa C     2018-02-17 Carcin… www.… GWAS…
 8 2018-05-18             29471430 Tanikawa C     2018-02-17 Carcin… www.… GWAS…
 9 2018-05-18             29471430 Tanikawa C     2018-02-17 Carcin… www.… GWAS…
10 2018-05-18             29471430 Tanikawa C     2018-02-17 Carcin… www.… GWAS…
# ℹ 132 more rows
# ℹ abbreviated name: ¹​`DATE ADDED TO CATALOG`
# ℹ 31 more variables: `DISEASE/TRAIT` <chr>, `INITIAL SAMPLE SIZE` <chr>,
#   `REPLICATION SAMPLE SIZE` <chr>, REGION <chr>, CHR_ID <chr>, CHR_POS <dbl>,
#   `REPORTED GENE(S)` <chr>, MAPPED_GENE <chr>, UPSTREAM_GENE_ID <chr>,
#   DOWNSTREAM_GENE_ID <chr>, SNP_GENE_IDS <chr>, UPSTREAM_GENE_DISTANCE <dbl>,
#   DOWNSTREAM_GENE_DISTANCE <dbl>, `STRONGEST SNP-RISK ALLELE` <chr>, …

Note that filter combines consecutive arguments by default using the “&”. You could equivalently give a single argument with the “&” to get the same slice

filter(gwas, `DISEASE/TRAIT` == 'Colorectal cancer' & PVALUE_MLOG > 10)

# A tibble: 142 × 38
   DATE ADDED TO CATALO…¹ PUBMEDID `FIRST AUTHOR` DATE       JOURNAL LINK  STUDY
   <date>                    <dbl> <chr>          <date>     <chr>   <chr> <chr>
 1 2016-12-21             27145994 Wang M         2016-05-05 Nat Co… www.… Comm…
 2 2018-05-18             29471430 Tanikawa C     2018-02-17 Carcin… www.… GWAS…
 3 2018-05-18             29471430 Tanikawa C     2018-02-17 Carcin… www.… GWAS…
 4 2018-05-18             29471430 Tanikawa C     2018-02-17 Carcin… www.… GWAS…
 5 2018-05-18             29471430 Tanikawa C     2018-02-17 Carcin… www.… GWAS…
 6 2018-05-18             29471430 Tanikawa C     2018-02-17 Carcin… www.… GWAS…
 7 2018-05-18             29471430 Tanikawa C     2018-02-17 Carcin… www.… GWAS…
 8 2018-05-18             29471430 Tanikawa C     2018-02-17 Carcin… www.… GWAS…
 9 2018-05-18             29471430 Tanikawa C     2018-02-17 Carcin… www.… GWAS…
10 2018-05-18             29471430 Tanikawa C     2018-02-17 Carcin… www.… GWAS…
# ℹ 132 more rows
# ℹ abbreviated name: ¹​`DATE ADDED TO CATALOG`
# ℹ 31 more variables: `DISEASE/TRAIT` <chr>, `INITIAL SAMPLE SIZE` <chr>,
#   `REPLICATION SAMPLE SIZE` <chr>, REGION <chr>, CHR_ID <chr>, CHR_POS <dbl>,
#   `REPORTED GENE(S)` <chr>, MAPPED_GENE <chr>, UPSTREAM_GENE_ID <chr>,
#   DOWNSTREAM_GENE_ID <chr>, SNP_GENE_IDS <chr>, UPSTREAM_GENE_DISTANCE <dbl>,
#   DOWNSTREAM_GENE_DISTANCE <dbl>, `STRONGEST SNP-RISK ALLELE` <chr>, …

Arrange rows with arrange()

The function arrange just sorts the rows based on the columns you specify. For example, to sort the colorectal cancer SNPs by DATE of the study,

colocancer = filter(gwas, `DISEASE/TRAIT` == 'Colorectal cancer')
arrange(colocancer, DATE)

# A tibble: 561 × 38
   DATE ADDED TO CATALO…¹ PUBMEDID `FIRST AUTHOR` DATE       JOURNAL LINK  STUDY
   <date>                    <dbl> <chr>          <date>     <chr>   <chr> <chr>
 1 2008-06-16             17618283 Zanke BW       2007-07-08 Nat Ge… www.… Geno…
 2 2008-06-16             17618284 Tomlinson I    2007-07-08 Nat Ge… www.… A ge…
 3 2008-06-16             17934461 Broderick P    2007-10-14 Nat Ge… www.… A ge…
 4 2008-06-16             18372901 Tenesa A       2008-03-30 Nat Ge… www.… Geno…
 5 2008-06-16             18372901 Tenesa A       2008-03-30 Nat Ge… www.… Geno…
 6 2008-06-16             18372901 Tenesa A       2008-03-30 Nat Ge… www.… Geno…
 7 2008-06-16             18372905 Tomlinson IP   2008-03-30 Nat Ge… www.… A ge…
 8 2008-06-16             18372905 Tomlinson IP   2008-03-30 Nat Ge… www.… A ge…
 9 2008-06-16             18372905 Tomlinson IP   2008-03-30 Nat Ge… www.… A ge…
10 2008-06-16             18372905 Tomlinson IP   2008-03-30 Nat Ge… www.… A ge…
# ℹ 551 more rows
# ℹ abbreviated name: ¹​`DATE ADDED TO CATALOG`
# ℹ 31 more variables: `DISEASE/TRAIT` <chr>, `INITIAL SAMPLE SIZE` <chr>,
#   `REPLICATION SAMPLE SIZE` <chr>, REGION <chr>, CHR_ID <chr>, CHR_POS <dbl>,
#   `REPORTED GENE(S)` <chr>, MAPPED_GENE <chr>, UPSTREAM_GENE_ID <chr>,
#   DOWNSTREAM_GENE_ID <chr>, SNP_GENE_IDS <chr>, UPSTREAM_GENE_DISTANCE <dbl>,
#   DOWNSTREAM_GENE_DISTANCE <dbl>, `STRONGEST SNP-RISK ALLELE` <chr>, …

and use desc to make the sort a descending one,

arrange(colocancer, desc(DATE))

# A tibble: 561 × 38
   DATE ADDED TO CATALO…¹ PUBMEDID `FIRST AUTHOR` DATE       JOURNAL LINK  STUDY
   <date>                    <dbl> <chr>          <date>     <chr>   <chr> <chr>
 1 2021-06-24             34062886 Nazarian A     2021-05-01 Genes … www.… Geno…
 2 2021-06-24             34062886 Nazarian A     2021-05-01 Genes … www.… Geno…
 3 2021-06-24             34062886 Nazarian A     2021-05-01 Genes … www.… Geno…
 4 2021-06-24             34062886 Nazarian A     2021-05-01 Genes … www.… Geno…
 5 2021-06-24             34062886 Nazarian A     2021-05-01 Genes … www.… Geno…
 6 2021-06-24             34062886 Nazarian A     2021-05-01 Genes … www.… Geno…
 7 2021-06-24             34062886 Nazarian A     2021-05-01 Genes … www.… Geno…
 8 2021-08-10             33627384 Matejcic M     2021-02-24 Cancer… www.… Rare…
 9 2021-08-10             33627384 Matejcic M     2021-02-24 Cancer… www.… Rare…
10 2021-02-26             32514122 Ishigaki K     2020-06-08 Nat Ge… www.… Larg…
# ℹ 551 more rows
# ℹ abbreviated name: ¹​`DATE ADDED TO CATALOG`
# ℹ 31 more variables: `DISEASE/TRAIT` <chr>, `INITIAL SAMPLE SIZE` <chr>,
#   `REPLICATION SAMPLE SIZE` <chr>, REGION <chr>, CHR_ID <chr>, CHR_POS <dbl>,
#   `REPORTED GENE(S)` <chr>, MAPPED_GENE <chr>, UPSTREAM_GENE_ID <chr>,
#   DOWNSTREAM_GENE_ID <chr>, SNP_GENE_IDS <chr>, UPSTREAM_GENE_DISTANCE <dbl>,
#   DOWNSTREAM_GENE_DISTANCE <dbl>, `STRONGEST SNP-RISK ALLELE` <chr>, …

Select columns with select()

The select function simple selects specific columns (i.e., variables). To get only the disease, chromosome position, and -log(p-value) from the full data,

select(gwas, `DISEASE/TRAIT`, CHR_POS, PVALUE_MLOG)

# A tibble: 123,569 × 3
   `DISEASE/TRAIT`       CHR_POS PVALUE_MLOG
   <chr>                   <dbl>       <dbl>
 1 Triglyceride levels  42387225        7.52
 2 Triglyceride levels   3442204        7.30
 3 Triglyceride levels  18415790        6.70
 4 Triglyceride levels  63122540        6.70
 5 Triglyceride levels  87101557        6.52
 6 Triglyceride levels  81501185        6.15
 7 Triglyceride levels  45923216        5.70
 8 Triglyceride levels  44492177        5.52
 9 Triglyceride levels 230160042        5.30
10 Triglyceride levels 164672114        5.22
# ℹ 123,559 more rows

Add new variables with mutate()

You may want to add new variables that are functions of other variables. For example, you could create a column for the p-value from the PVALUE_MLOG (there is already one in the table, but we’ll make another)

sm_gwas = select(gwas, `DISEASE/TRAIT`, CHR_POS, PVALUE_MLOG, `P-VALUE`)
mutate(sm_gwas, new_p_value = 10^(-PVALUE_MLOG))

# A tibble: 123,569 × 5
   `DISEASE/TRAIT`       CHR_POS PVALUE_MLOG  `P-VALUE` new_p_value
   <chr>                   <dbl>       <dbl>      <dbl>       <dbl>
 1 Triglyceride levels  42387225        7.52 0.00000003  0.00000003
 2 Triglyceride levels   3442204        7.30 0.00000005  0.00000005
 3 Triglyceride levels  18415790        6.70 0.0000002   0.0000002 
 4 Triglyceride levels  63122540        6.70 0.0000002   0.0000002 
 5 Triglyceride levels  87101557        6.52 0.0000003   0.0000003 
 6 Triglyceride levels  81501185        6.15 0.0000007   0.0000007 
 7 Triglyceride levels  45923216        5.70 0.000002    0.000002  
 8 Triglyceride levels  44492177        5.52 0.000003    0.000003  
 9 Triglyceride levels 230160042        5.30 0.000005    0.000005  
10 Triglyceride levels 164672114        5.22 0.000006    0.000006  
# ℹ 123,559 more rows
…
The function summarize (Hadley prefers the British spelling, summarise, which I refuse to acknowledge as an American 😤) collapses the data frame to a single row:

summarize(gwas, mean_mlog_p_value = mean(PVALUE_MLOG)) 

# A tibble: 1 × 1
  mean_mlog_p_value
              <dbl>
1              21.3

This isn’t terribly useful until you use the group_by function to do the summarize action on data by “group”, which you specify according to values of variables. To see the average for each disease, group by DISEASE/TRAIT,

grouped_gwas = group_by(gwas, `DISEASE/TRAIT`)
summarize(grouped_gwas, mean_mlog_p_value = mean(PVALUE_MLOG))

# A tibble: 100 × 2
   `DISEASE/TRAIT`                   mean_mlog_p_value
   <chr>                                         <dbl>
 1 Adolescent idiopathic scoliosis                14.3
 2 Alanine aminotransferase levels                20.0
 3 Apolipoprotein A1 levels                       48.2
 4 Apolipoprotein B levels                        61.8
 5 Appendicular lean mass                         18.4
 6 Aspartate aminotransferase levels              19.7
 7 Asthma                                         17.3
 8 Basophil count                                 22.8
 9 Brain region volumes                           10.8
10 Breast cancer                                  12.5
# ℹ 90 more rows

or add the journal the study was published in

grouped_gwas = group_by(gwas, `DISEASE/TRAIT`, JOURNAL)
meanp = summarize(grouped_gwas, mean_mlog_p_value = mean(PVALUE_MLOG))

`summarise()` has grouped output by 'DISEASE/TRAIT'. You can override using the
`.groups` argument.

meanp

# A tibble: 589 × 3
# Groups:   DISEASE/TRAIT [100]
   `DISEASE/TRAIT`                 JOURNAL                     mean_mlog_p_value
   <chr>                           <chr>                                   <dbl>
 1 Adolescent idiopathic scoliosis Am J Hum Genet                          16.7 
 2 Adolescent idiopathic scoliosis Hum Genet                               14.4 
 3 Adolescent idiopathic scoliosis Hum Mol Genet                           12.1 
 4 Adolescent idiopathic scoliosis Nat Commun                              12.5 
 5 Alanine aminotransferase levels Cell                                    37.2 
 6 Alanine aminotransferase levels Nat Commun                              20.5 
 7 Alanine aminotransferase levels Nat Genet                               20.0 
 8 Alanine aminotransferase levels Obesity (Silver Spring)                  5.67
 9 Alanine aminotransferase levels Sci Rep                                  7.15
10 Apolipoprotein A1 levels        Arterioscler Thromb Vasc B…            527.  
# ℹ 579 more rows

Finally, let’s take the mean across all diseases for each journal and then sort by p-value to see the pattern with the journal a little better

arrange(summarize(group_by(gwas, JOURNAL), mean_mlog_p_value = mean(PVALUE_MLOG)), desc(mean_mlog_p_value))

# A tibble: 133 × 2
   JOURNAL                       mean_mlog_p_value
   <chr>                                     <dbl>
 1 Arterioscler Thromb Vasc Biol             317. 
 2 J Acad Nutr Diet                          149. 
 3 Sci Adv                                    53.5
 4 NPJ Genom Med                              52.6
 5 J Cell Mol Med                             40.5
 6 Circulation                                35.4
 7 Lancet                                     31.8
 8 Cell                                       29.9
 9 Nat Med                                    29.5
10 Commun Biol                                28.8
# ℹ 123 more rows

Another nice function to use with summarize is the “counting” function n(), which can give the number of rows in each group. Since each row is a SNP, we can get the number of SNPs for each disease/trait this way:

arrange(summarize(group_by(gwas, `DISEASE/TRAIT`), n_SNPS = n()), desc(n_SNPS))

# A tibble: 100 × 2
   `DISEASE/TRAIT`                                                 n_SNPS
   <chr>                                                            <int>
 1 Electrocardiogram morphology (amplitude at temporal datapoints)   5501
 2 Height                                                            5033
 3 Heel bone mineral density                                         4638
 4 Type 2 diabetes                                                   3360
 5 Mean corpuscular hemoglobin                                       2960
 6 Protein quantitative trait loci (liver)                           2897
 7 Platelet count                                                    2544
 8 Red cell distribution width                                       2478
 9 Mean corpuscular volume                                           2417
10 Metabolite levels                                                 2386
# ℹ 90 more rows

Using the |> operator to chain together functions

The slicing and summarzing operations we’ve been doing can quickly get messy as we added more operations. Since each operation is applied to the results of the previous one, it ends up with a bunch of very nested parentheses, which can be hard to read. The pipe operator |> allows you to easily chain together operations so that its easier to read them from left to right. For example, the previous summarize and arrange operations could be put together like

gwas |>
  group_by(`DISEASE/TRAIT`) |>
  summarize(n_SNPS = n()) |>
  arrange(desc(n_SNPS))

# A tibble: 100 × 2
   `DISEASE/TRAIT`                                                 n_SNPS
   <chr>                                                            <int>
 1 Electrocardiogram morphology (amplitude at temporal datapoints)   5501
 2 Height                                                            5033
 3 Heel bone mineral density                                         4638
 4 Type 2 diabetes                                                   3360
 5 Mean corpuscular hemoglobin                                       2960
 6 Protein quantitative trait loci (liver)                           2897
 7 Platelet count                                                    2544
 8 Red cell distribution width                                       2478
 9 Mean corpuscular volume                                           2417
10 Metabolite levels                                                 2386
# ℹ 90 more rows
…
