Joins and Databases
…
Looking at the soc_read commands, you’ll notice that we start with two separate files, one for hospitalization and one for deaths. It turns out that the CDC gives us these tables separately: hospitalizations and deaths. Putting these data tables together requires “joining” them. Not only that, we have to do some extra work to even make the join work, which we accomplish with another join. By learning about joins, we’ll not only be able to understand this example, we’ll be able to combine data from all kinds of places.

Keys

One key to understanding joins (pardon the pun 😜) is understanding “keys”. Joining data tables is really about a common variable in two different tables; the two tables can be “joined” together by merging variables in both tables through common values of the variable common to both of them. These common variables are called keys. We can look for common variables in us_deaths and us_hosps:

us_hosps

# A tibble: 12,597 × 86
   week_end_date       jurisdiction weekly_actual_days_reporting_any_data
   <dttm>              <chr>                                        <dbl>
 1 2020-08-08 00:00:00 AK                                              98
 2 2020-08-15 00:00:00 AK                                              98
 3 2020-08-22 00:00:00 AK                                              98
 4 2020-08-29 00:00:00 AK                                              97
 5 2020-09-05 00:00:00 AK                                              97
 6 2020-09-12 00:00:00 AK                                              98
 7 2020-09-19 00:00:00 AK                                              98
 8 2020-09-26 00:00:00 AK                                              96
 9 2020-10-03 00:00:00 AK                                              97
10 2020-10-10 00:00:00 AK                                              98
# ℹ 12,587 more rows
# ℹ 83 more variables: weekly_percent_days_reporting_any_data <dbl>,
#   num_hospitals_previous_day_admission_adult_covid_confirmed <dbl>,
#   num_hospitals_previous_day_admission_pediatric_covid_confirmed <dbl>,
#   num_hospitals_previous_day_admission_influenza_confirmed <dbl>,
#   num_hospitals_total_patients_hospitalized_confirmed_influenza <dbl>,
#   num_hospitals_icu_patients_confirmed_influenza <dbl>, …

us_deaths

# A tibble: 21,654 × 21
   data_as_of          start_date          end_date            group year  month
   <dttm>              <dttm>              <dttm>              <chr> <chr> <dbl>
 1 2026-02-12 00:00:00 2019-12-29 00:00:00 2020-01-04 00:00:00 By W… 2019…    NA
 2 2026-02-12 00:00:00 2020-01-05 00:00:00 2020-01-11 00:00:00 By W… 2020     NA
 3 2026-02-12 00:00:00 2020-01-12 00:00:00 2020-01-18 00:00:00 By W… 2020     NA
 4 2026-02-12 00:00:00 2020-01-19 00:00:00 2020-01-25 00:00:00 By W… 2020     NA
 5 2026-02-12 00:00:00 2020-01-26 00:00:00 2020-02-01 00:00:00 By W… 2020     NA
 6 2026-02-12 00:00:00 2020-02-02 00:00:00 2020-02-08 00:00:00 By W… 2020     NA
 7 2026-02-12 00:00:00 2020-02-09 00:00:00 2020-02-15 00:00:00 By W… 2020     NA
 8 2026-02-12 00:00:00 2020-02-16 00:00:00 2020-02-22 00:00:00 By W… 2020     NA
 9 2026-02-12 00:00:00 2020-02-23 00:00:00 2020-02-29 00:00:00 By W… 2020     NA
10 2026-02-12 00:00:00 2020-03-01 00:00:00 2020-03-07 00:00:00 By W… 2020     NA
# ℹ 21,644 more rows
# ℹ 15 more variables: mmwr_week <dbl>, week_ending_date <dttm>, state <chr>,
#   covid_19_deaths <dbl>, total_deaths <dbl>,
#   percent_of_expected_deaths <dbl>, pneumonia_deaths <dbl>,
#   pneumonia_and_covid_19_deaths <dbl>, influenza_deaths <dbl>,
#   pneumonia_influenza_or_covid_19_deaths <dbl>, footnote <chr>, `:id` <chr>,
#   `:version` <chr>, `:created_at` <dttm>, `:updated_at` <dttm>

We notice that the two data tables record their information for each week and for each state or jurisdiction. So each combination of these variables denotes a unique observation and hence the tables are tidy. Moreover, those two variables, week_ending_date/week_end_date and state/jurisdiction, are our keys that we can use to join together the tables. We can check that the combination of these variables works to uniquely identify each observation by looking to see if each combination occurs only once in the dataset:

us_deaths |> 
  count(week_ending_date, state) |>
  filter(n > 1)

# A tibble: 54 × 3
   week_ending_date state                    n
   <dttm>           <chr>                <int>
 1 NA               Alabama                 82
 2 NA               Alaska                  82
 3 NA               Arizona                 82
 4 NA               Arkansas                82
 5 NA               California              82
 6 NA               Colorado                82
 7 NA               Connecticut             82
 8 NA               Delaware                82
 9 NA               District of Columbia    82
10 NA               Florida                 82
# ℹ 44 more rows

Ruh roh. It looks like NA and state coming up 82 times! Let’s check out why by filtering those NA dates

us_deaths |> filter(is.na(week_ending_date))

# A tibble: 4,428 × 21
   data_as_of          start_date          end_date            group year  month
   <dttm>              <dttm>              <dttm>              <chr> <chr> <dbl>
 1 2026-02-12 00:00:00 2020-01-01 00:00:00 2020-01-31 00:00:00 By M… 2020      1
 2 2026-02-12 00:00:00 2020-02-01 00:00:00 2020-02-29 00:00:00 By M… 2020      2
 3 2026-02-12 00:00:00 2020-03-01 00:00:00 2020-03-31 00:00:00 By M… 2020      3
 4 2026-02-12 00:00:00 2020-04-01 00:00:00 2020-04-30 00:00:00 By M… 2020      4
 5 2026-02-12 00:00:00 2020-05-01 00:00:00 2020-05-31 00:00:00 By M… 2020      5
 6 2026-02-12 00:00:00 2020-06-01 00:00:00 2020-06-30 00:00:00 By M… 2020      6
 7 2026-02-12 00:00:00 2020-07-01 00:00:00 2020-07-31 00:00:00 By M… 2020      7
 8 2026-02-12 00:00:00 2020-08-01 00:00:00 2020-08-31 00:00:00 By M… 2020      8
 9 2026-02-12 00:00:00 2020-09-01 00:00:00 2020-09-30 00:00:00 By M… 2020      9
10 2026-02-12 00:00:00 2020-10-01 00:00:00 2020-10-31 00:00:00 By M… 2020     10
# ℹ 4,418 more rows
# ℹ 15 more variables: mmwr_week <dbl>, week_ending_date <dttm>, state <chr>,
#   covid_19_deaths <dbl>, total_deaths <dbl>,
#   percent_of_expected_deaths <dbl>, pneumonia_deaths <dbl>,
#   pneumonia_and_covid_19_deaths <dbl>, influenza_deaths <dbl>,
#   pneumonia_influenza_or_covid_19_deaths <dbl>, footnote <chr>, `:id` <chr>,
#   `:version` <chr>, `:created_at` <dttm>, `:updated_at` <dttm>
…
If we want to join the death data and the hospitalization table, we would call week_ending_date and state the primary keys, which identify unique observations in the first table in the join, and week_end_date and jurisdiction the foreign keys, which are the keys that correspond to the primary keys in the second table in the join.

Basic joins

There are two basic kinds of data table joins: joins that combine data from one table into another, which are called mutating joins, and joins that use one table to filter the rows of another table, which are called filtering joins. Mutating joins are usually done with the functions left_join, inner_join, right_join, and full_join, and filtering joins with semi_join and anti_join.

Mutating joins

We’ll start by examining inner_join(x,y), which takes variables from table y and adds them to table x and keeps only the rows where values exist in both tables x and y (the name “inner” will make more sense when we talk about all kinds of mutating joins). We use inner_join in our CDC example to join the hospitalization and death data. To do the join, we need our keys so we need to look at the combinations of our key variables again for each table:

us_deaths |>
  distinct(week_ending_date, state) |>
  arrange(state)

# A tibble: 17,280 × 2
   week_ending_date    state  
   <dttm>              <chr>  
 1 2020-01-04 00:00:00 Alabama
 2 2020-01-11 00:00:00 Alabama
 3 2020-01-18 00:00:00 Alabama
 4 2020-01-25 00:00:00 Alabama
 5 2020-02-01 00:00:00 Alabama
 6 2020-02-08 00:00:00 Alabama
 7 2020-02-15 00:00:00 Alabama
 8 2020-02-22 00:00:00 Alabama
 9 2020-02-29 00:00:00 Alabama
10 2020-03-07 00:00:00 Alabama
# ℹ 17,270 more rows

us_hosps |>
  distinct(week_end_date, jurisdiction) |>
  arrange(jurisdiction)

# A tibble: 12,597 × 2
   week_end_date       jurisdiction
   <dttm>              <chr>       
 1 2020-08-08 00:00:00 AK          
 2 2020-08-15 00:00:00 AK          
 3 2020-08-22 00:00:00 AK          
 4 2020-08-29 00:00:00 AK          
 5 2020-09-05 00:00:00 AK          
 6 2020-09-12 00:00:00 AK          
 7 2020-09-19 00:00:00 AK          
 8 2020-09-26 00:00:00 AK          
 9 2020-10-03 00:00:00 AK          
10 2020-10-10 00:00:00 AK          
# ℹ 12,587 more rows

Ruh roh again. The deaths State has the full state name and the hospitalizations state has the two letter state abbreviation. This means that R can’t join the tables yet since it won’t know which state in us_deaths goes with which jurisdiction in us_hosps. So, we’ll need to convert one to the other. Lucky for us, R has some built in data tables that help, state.abb and state.name, which we combine into a new data table along with abbreviations for Washington DC, Puerto Rico, and the United States.

states = 
  tibble(state_abbrv = state.abb, state = state.name) |> 
  add_row(state_abbrv = c("USA", "DC", "PR"), 
          state = c("United States", "District of Columbia", "Puerto Rico"))
states

# A tibble: 53 × 2
   state_abbrv state      
   <chr>       <chr>      
 1 AL          Alabama    
 2 AK          Alaska     
 3 AZ          Arizona    
 4 AR          Arkansas   
 5 CA          California 
 6 CO          Colorado   
 7 CT          Connecticut
 8 DE          Delaware   
 9 FL          Florida    
10 GA          Georgia    
# ℹ 43 more rows

How can we combine the state names from states into us_hosps? We can this with a join! To see this, let’s join the new states table with our us_hosps.

us_hosps_w_states = 
  us_hosps |>
  rename(state_abbrv = jurisdiction) |>
  inner_join(states) |>
  relocate(week_end_date, state_abbrv, state) # this moves these columns to the beginning of the data frame

Joining with `by = join_by(state_abbrv)`

us_hosps_w_states

# A tibble: 11,713 × 87
   week_end_date       state_abbrv state  weekly_actual_days_reporting_any_data
   <dttm>              <chr>       <chr>                                  <dbl>
 1 2020-08-08 00:00:00 AK          Alaska                                    98
 2 2020-08-15 00:00:00 AK          Alaska                                    98
 3 2020-08-22 00:00:00 AK          Alaska                                    98
 4 2020-08-29 00:00:00 AK          Alaska                                    97
 5 2020-09-05 00:00:00 AK          Alaska                                    97
 6 2020-09-12 00:00:00 AK          Alaska                                    98
 7 2020-09-19 00:00:00 AK          Alaska                                    98
 8 2020-09-26 00:00:00 AK          Alaska                                    96
 9 2020-10-03 00:00:00 AK          Alaska                                    97
10 2020-10-10 00:00:00 AK          Alaska                                    98
# ℹ 11,703 more rows
# ℹ 83 more variables: weekly_percent_days_reporting_any_data <dbl>,
#   num_hospitals_previous_day_admission_adult_covid_confirmed <dbl>,
#   num_hospitals_previous_day_admission_pediatric_covid_confirmed <dbl>,
#   num_hospitals_previous_day_admission_influenza_confirmed <dbl>,
#   num_hospitals_total_patients_hospitalized_confirmed_influenza <dbl>,
#   num_hospitals_icu_patients_confirmed_influenza <dbl>, …

We can see that R told us when doing this join that it’s joining with `by = join_by(state_abbrv)`. This actually means R tried to guess which key variables it should use to join the tables. It did this by look at columns in both tables and finding ones with identical names. This is called a natural join. In this specific case, the only column with the same name in both tables is state_abbrv (which we renamed from jurisdiction), so that is the primary and foreign key that was used for the join. Also note that since this is a left join and us_hosps is the primary table, all of its rows are kept and we simply get the new state column added.

Now we are ready to join the deaths and hospitalization tables together since we have full state names in both tables. We do this by telling inner_join which variables are the primary and foreign keys since they have different names in the two tables (and thus not have to rename the columns all the time).

us_hosps_deaths =
us_deaths |>
  inner_join(us_hosps_w_states, join_by(week_ending_date == week_end_date, state == state)) |>
  select(-data_as_of, -start_date, -end_date, -group, -year, -month)
us_hosps_deaths

# A tibble: 11,713 × 100
   mmwr_week week_ending_date    state         covid_19_deaths total_deaths
       <dbl> <dttm>              <chr>                   <dbl>        <dbl>
 1        32 2020-08-08 00:00:00 United States            7870        63719
 2        33 2020-08-15 00:00:00 United States            7270        63644
 3        34 2020-08-22 00:00:00 United States            6389        62562
 4        35 2020-08-29 00:00:00 United States            5755        61104
 5        36 2020-09-05 00:00:00 United States            5021        60247
 6        37 2020-09-12 00:00:00 United States            4628        59665
 7        38 2020-09-19 00:00:00 United States            4280        59740
 8        39 2020-09-26 00:00:00 United States            4305        60613
 9        40 2020-10-03 00:00:00 United States            4246        59802
10        41 2020-10-10 00:00:00 United States            4823        61779
# ℹ 11,703 more rows
# ℹ 95 more variables: percent_of_expected_deaths <dbl>,
#   pneumonia_deaths <dbl>, pneumonia_and_covid_19_deaths <dbl>,
#   influenza_deaths <dbl>, pneumonia_influenza_or_covid_19_deaths <dbl>,
#   footnote <chr>, `:id.x` <chr>, `:version.x` <chr>, `:created_at.x` <dttm>,
#   `:updated_at.x` <dttm>, state_abbrv <chr>,
#   weekly_actual_days_reporting_any_data <dbl>, …
…
nrow(us_hosps)

[1] 12597

nrow(us_hosps_deaths)

[1] 11713

The table created with the inner_join has fewer rows than either of the original tables. This is because inner join only keeps rows in the output table where the combination of the key values exist in both of the tables in the join. A left_join(x,y) or right_join(x,y), on the other hand, will keep all the rows in the table in the x (“left”) or y (“right”) tables, respectively. This however means that there are variables in the y table for the left_join and in the x table in the right_join that don’t have values in the output table and so R puts NA values in those places. To see this, suppose we do a left_join and combine the us_hosps into the us_deaths.

us_deaths |>
  left_join(us_hosps_w_states, join_by(week_ending_date == week_end_date, state == state)) |>
  select(-data_as_of, -start_date, -end_date, -group, -year, -month)

# A tibble: 21,654 × 100
   mmwr_week week_ending_date    state         covid_19_deaths total_deaths
       <dbl> <dttm>              <chr>                   <dbl>        <dbl>
 1         1 2020-01-04 00:00:00 United States               0        60170
 2         2 2020-01-11 00:00:00 United States               1        60734
 3         3 2020-01-18 00:00:00 United States               2        59362
 4         4 2020-01-25 00:00:00 United States               3        59162
 5         5 2020-02-01 00:00:00 United States               0        58834
 6         6 2020-02-08 00:00:00 United States               4        59482
 7         7 2020-02-15 00:00:00 United States               6        58815
 8         8 2020-02-22 00:00:00 United States               6        58912
 9         9 2020-02-29 00:00:00 United States               9        59334
10        10 2020-03-07 00:00:00 United States              38        59694
# ℹ 21,644 more rows
# ℹ 95 more variables: percent_of_expected_deaths <dbl>,
#   pneumonia_deaths <dbl>, pneumonia_and_covid_19_deaths <dbl>,
#   influenza_deaths <dbl>, pneumonia_influenza_or_covid_19_deaths <dbl>,
#   footnote <chr>, `:id.x` <chr>, `:version.x` <chr>, `:created_at.x` <dttm>,
#   `:updated_at.x` <dttm>, state_abbrv <chr>,
#   weekly_actual_days_reporting_any_data <dbl>, …

If we look at the first rows of this table, we can see that many of the hospitalization variables are NA. This is because these dates, which are early 2020, don’t exist in the us_hosps data, which only starts in August of 2020:

us_hosps |> arrange(week_end_date)

# A tibble: 12,597 × 86
   week_end_date       jurisdiction weekly_actual_days_reporting_any_data
   <dttm>              <chr>                                        <dbl>
 1 2020-08-08 00:00:00 AK                                              98
 2 2020-08-08 00:00:00 AL                                             629
 3 2020-08-08 00:00:00 AR                                             455
 4 2020-08-08 00:00:00 AS                                               0
 5 2020-08-08 00:00:00 AZ                                             453
 6 2020-08-08 00:00:00 CA                                            2365
 7 2020-08-08 00:00:00 CO                                             505
 8 2020-08-08 00:00:00 CT                                             152
 9 2020-08-08 00:00:00 DC                                              62
10 2020-08-08 00:00:00 DE                                              49
# ℹ 12,587 more rows
# ℹ 83 more variables: weekly_percent_days_reporting_any_data <dbl>,
#   num_hospitals_previous_day_admission_adult_covid_confirmed <dbl>,
#   num_hospitals_previous_day_admission_pediatric_covid_confirmed <dbl>,
#   num_hospitals_previous_day_admission_influenza_confirmed <dbl>,
#   num_hospitals_total_patients_hospitalized_confirmed_influenza <dbl>,
#   num_hospitals_icu_patients_confirmed_influenza <dbl>, …
…
Filtering joins

Filtering joins are handy for filtering tables when the conditions for the filter might be complex enough to be contained within another table. A semi_join(x,y) keeps the rows in x that match a row in y whereas anti_join(x,y) keeps the rows in x that don’t have a match in y. For example, suppose we want to filter our us_hosps_deaths for a set of specific states. We could create a new tibble for this:

filter_dt = tibble(state = c("California", "Kentucky", "New York", "Texas"))

and then do the join:

us_hosps_deaths |>
  semi_join(filter_dt)

Joining with `by = join_by(state)`

# A tibble: 884 × 100
   mmwr_week week_ending_date    state      covid_19_deaths total_deaths
       <dbl> <dttm>              <chr>                <dbl>        <dbl>
 1        32 2020-08-08 00:00:00 California             998         6309
 2        33 2020-08-15 00:00:00 California             878         6291
 3        34 2020-08-22 00:00:00 California             830         6478
 4        35 2020-08-29 00:00:00 California             728         5878
 5        36 2020-09-05 00:00:00 California             614         5784
 6        37 2020-09-12 00:00:00 California             530         5874
 7        38 2020-09-19 00:00:00 California             482         5755
 8        39 2020-09-26 00:00:00 California             453         5563
 9        40 2020-10-03 00:00:00 California             346         5671
10        41 2020-10-10 00:00:00 California             375         5568
# ℹ 874 more rows
# ℹ 95 more variables: percent_of_expected_deaths <dbl>,
#   pneumonia_deaths <dbl>, pneumonia_and_covid_19_deaths <dbl>,
#   influenza_deaths <dbl>, pneumonia_influenza_or_covid_19_deaths <dbl>,
#   footnote <chr>, `:id.x` <chr>, `:version.x` <chr>, `:created_at.x` <dttm>,
#   `:updated_at.x` <dttm>, state_abbrv <chr>,
#   weekly_actual_days_reporting_any_data <dbl>, …
…
